Exam01
…
[[2]]
# A tibble: 249 × 6
   English short name  (using tit…¹ `Alpha-2 code` `Alpha-3 code` `Numeric code`
   <chr>                            <chr>          <chr>                   <int>
 1 Afghanistan[c]                   AF             AFG                         4
 2 Åland Islands                    AX             ALA                       248
 3 Albania                          AL             ALB                         8
 4 Algeria                          DZ             DZA                        12
 5 American Samoa                   AS             ASM                        16
 6 Andorra                          AD             AND                        20
 7 Angola                           AO             AGO                        24
 8 Anguilla                         AI             AIA                       660
 9 Antarctica                       AQ             ATA                        10
10 Antigua and Barbuda              AG             ATG                        28
# ℹ 239 more rows
# ℹ abbreviated name: ¹​`English short name  (using title case)`
# ℹ 2 more variables: `Link to ISO 3166-2` <chr>, `Independent[b]` <chr>

[[3]]
# A tibble: 37 × 3
   `Edition/Newsletter`                                   `Date issued` Contents
   <chr>                                                  <chr>         <chr>   
 1 ISO 3166:1974                                          1974          First e…
 2 ISO 3166:1981                                          1981          Second …
 3 ISO 3166:1988                                          1988-08-15    Third e…
 4 ISO 3166:1994                                          1994-02-10    Fourth …
 5 ISO 3166-1:1997                                        1997-09-25    First e…
 6 Newsletter V-1 Archived 2018-12-07 at the Wayback Mac… 1998-02-05    Change …
 7 Newsletter V-2 Archived 2011-07-22 at the Wayback Mac… 1999-10-01    Inclusi…
 8 Newsletter V-3                                         2002-02-01    Change …
 9 Newsletter V-4 Archived 2018-12-07 at the Wayback Mac… 2002-05-20    Name ch…
10 Newsletter V-5 Archived 2018-12-07 at the Wayback Mac… 2002-05-20    Change …
# ℹ 27 more rows
…
[[2]]
# A tibble: 2 × 5
  X1                                                     X2    X3    X4    X5   
  <chr>                                                  <chr> <chr> <chr> <chr>
1 ".mw-parser-output .hidden-begin{box-sizing:border-bo… Coun… Coun… Coun… Engl…
2 ".mw-parser-output .hidden-begin{box-sizing:border-bo… Two-… Thre… Thre… Engl…

[[3]]
# A tibble: 253 × 5
   CC    `a-2` `a-3` `#`   Name                                        
   <chr> <chr> <chr> <chr> <chr>                                       
 1 AS    AF    AFG   004   Afghanistan, Islamic Republic of            
 2 EU    AL    ALB   008   Albania, Republic of                        
 3 AN    AQ    ATA   010   Antarctica (the territory South of 60 deg S)
 4 AF    DZ    DZA   012   Algeria, People's Democratic Republic of    
 5 OC    AS    ASM   016   American Samoa                              
 6 EU    AD    AND   020   Andorra, Principality of                    
 7 AF    AO    AGO   024   Angola, Republic of                         
 8 NA    AG    ATG   028   Antigua and Barbuda                         
 9 AS    AZ    AZE   031   Azerbaijan, Republic of                     
10 SA    AR    ARG   032   Argentina, Argentine Republic               
# ℹ 243 more rows
…
Version 1 - aggregation set to 5 and clusters set to 9

## Inserted the provided code from exercise 24
agg_year <- 5
aggr_growth_long <- growth_long |>
  mutate(period=((end_year - min(end_year)) %/% agg_year) * agg_year + min(end_year)) |> 
  group_by(period, code, country, continent) |> summarise(pop = mean(growth))

`summarise()` has grouped output by 'period', 'code', 'country'. You can
override using the `.groups` argument.

aggr_growth_long

# A tibble: 2,509 × 5
# Groups:   period, code, country [2,509]
   period code  country              continent   pop
    <dbl> <chr> <chr>                <chr>     <dbl>
 1   1961 AFG   Afghanistan          AS        2.10 
 2   1961 AGO   Angola               AF        1.38 
 3   1961 ALB   Albania              EU        3.00 
 4   1961 AND   Andorra              EU        7.51 
 5   1961 ARE   United Arab Emirates AS        5.43 
 6   1961 ARG   Argentina            SA        1.62 
 7   1961 ARM   Armenia              AS        3.25 
 8   1961 ATG   Antigua and Barbuda  NA        1.51 
 9   1961 AUS   Australia            OC        2.08 
10   1961 AUT   Austria              EU        0.626
# ℹ 2,499 more rows
…
Version 2 - aggregation set to 10 and clusters set to 4

## Inserted the provided code from exercise 24
agg_year_v2 <- 10
aggr_growth_long_v2 <- growth_long |>
  mutate(period=((end_year - min(end_year)) %/% agg_year_v2) * agg_year_v2 + min(end_year)) |> 
  group_by(period, code, country, continent) |> summarise(pop = mean(growth))

`summarise()` has grouped output by 'period', 'code', 'country'. You can
override using the `.groups` argument.

aggr_growth_long_v2

# A tibble: 1,351 × 5
# Groups:   period, code, country [1,351]
   period code  country              continent   pop
    <dbl> <chr> <chr>                <chr>     <dbl>
 1   1961 AFG   Afghanistan          AS        2.23 
 2   1961 AGO   Angola               AF        1.19 
 3   1961 ALB   Albania              EU        2.87 
 4   1961 AND   Andorra              EU        7.72 
 5   1961 ARE   United Arab Emirates AS        8.49 
 6   1961 ARG   Argentina            SA        1.60 
 7   1961 ARM   Armenia              AS        2.90 
 8   1961 ATG   Antigua and Barbuda  NA        1.55 
 9   1961 AUS   Australia            OC        1.98 
10   1961 AUT   Austria              EU        0.580
# ℹ 1,341 more rows
…
